Fungal Treatment Area Size and E. coli Analysis
…
Data Reshaping for Area Size Plot

# A tibble: 57 × 8
   species       id_inoc starting_date timepoint mean_area sd_area se_area     n
   <chr>           <int> <chr>         <fct>         <dbl>   <dbl>   <dbl> <int>
 1 F33 Sordaria       40 2025-08-07    14dpi         0.701 0.0185  0.0107      3
 2 F35 Sordaria       41 2025-08-07    14dpi         0.708 0.0300  0.0173      3
 3 F37 Mold           42 2025-08-07    14dpi         0.739 0.00721 0.00416     3
 4 Faecal isola…       7 2025-07-09    0dpi          0.636 0.00379 0.00219     3
 5 Faecal isola…       7 2025-07-09    7dpi         15.1   1.87    1.08        3
 6 Faecal isola…       7 2025-07-09    14dpi        20.0   2.48    1.43        3
 7 Faecal isola…      10 2025-07-10    0dpi          0.722 0.0881  0.0509      3
 8 Faecal isola…      10 2025-07-10    7dpi         23.6   1.20    0.695       3
 9 Faecal isola…      10 2025-07-10    14dpi        43.4   0.808   0.466       3
10 Faecal isola…      14 2025-07-15    0dpi          0.641 0.0132  0.00762     3
# ℹ 47 more rows
…
